Introduction
…
summarise_draws(fit, default_summary_measures())
#> # A tibble: 462 x 7
#>    variable  mean median     sd    mad    q5    q95
#>    <chr>    <dbl>  <dbl>  <dbl>  <dbl> <dbl>  <dbl>
#>  1 logp[1]  -1.72  -1.67 0.248  0.194  -2.18 -1.36 
#>  2 logp[2]  -1.67  -1.61 0.246  0.268  -2.11 -1.41 
#>  3 logp[3]  -1.68  -1.65 0.203  0.237  -2.01 -1.43 
#>  4 logp[4]  -1.82  -1.85 0.172  0.171  -2.01 -1.48 
#>  5 logp[5]  -1.76  -1.78 0.177  0.201  -1.97 -1.41 
#>  6 logp[6]  -1.70  -1.68 0.249  0.284  -2.03 -1.28 
#>  7 logp[7]  -1.65  -1.64 0.163  0.197  -1.86 -1.39 
#>  8 logp[8]  -1.32  -1.31 0.104  0.0724 -1.52 -1.16 
#>  9 logp[9]  -1.25  -1.28 0.110  0.0927 -1.42 -1.05 
#> 10 logp[10] -1.07  -1.08 0.0844 0.0900 -1.18 -0.912
#> # ... with 452 more rows
…
Summarize random walk order 2 model draws

summarise_draws(rw2_fit, default_convergence_measures())
#> # A tibble: 462 x 4
#>    variable  rhat ess_bulk ess_tail
#>    <chr>    <dbl>    <dbl>    <dbl>
#>  1 logp[1]   1.35    11.7        NA
#>  2 logp[2]   1.36    11.7        NA
#>  3 logp[3]   1.28    19.4        NA
#>  4 logp[4]   1.48     9.53       NA
#>  5 logp[5]   1.23    16.1        NA
#>  6 logp[6]   1.14    24.6        NA
#>  7 logp[7]   1.17    40.1        NA
#>  8 logp[8]   1.45   126.         NA
#>  9 logp[9]   1.55   126.         NA
#> 10 logp[10]  1.38    42.3        NA
#> # ... with 452 more rows
…
